
Batch size: 128, lr: 0.001, loss: binary_crossentropy , metrics: accuracy, epochs: 50

17:29:10 26/07/2019

Model accuracy [0.11211999999523163, 0.29138, 0.4366, 0.51394, 0.5781799999809265, 0.6189800000190735, 0.64888, 0.6750800000381469, 0.692300000038147, 0.7073400000190735, 0.7174200000190735, 0.7302799999809265, 0.741299999961853, 0.746060000038147, 0.752699999961853, 0.761359999961853, 0.7634799999809265, 0.769179999961853, 0.7733799999809265, 0.776839999961853, 0.7811200000190734, 0.784119999961853, 0.786360000038147, 0.7907400000190735, 0.79342, 0.7964799999809266, 0.797879999961853, 0.8026000000190735, 0.801419999961853, 0.803999999961853, 0.805699999961853, 0.808239999961853, 0.807919999961853, 0.813640000038147, 0.8136999999809265, 0.811439999961853, 0.8125199999809265, 0.81504, 0.81074, 0.8148400000190735, 0.8156399999809265, 0.81656, 0.8176200000190735, 0.815359999961853, 0.8158799999809265, 0.81602, 0.8190400000190735, 0.818619999961853, 0.8180400000381469, 0.8187000000190735]

Validation accuracy [0.2051, 0.3933, 0.4959, 0.5612, 0.5942, 0.6133, 0.6785, 0.6578, 0.7173, 0.7087, 0.6774, 0.7191, 0.7449, 0.752, 0.7543, 0.7542, 0.7232, 0.7607, 0.7377, 0.7331, 0.782, 0.7649, 0.7494, 0.7565, 0.7737, 0.7505, 0.765, 0.7657, 0.7436, 0.7856, 0.7262, 0.7749, 0.7838, 0.7838, 0.762, 0.779, 0.7852, 0.7245, 0.7931, 0.7867, 0.6997, 0.7917, 0.6966, 0.7311, 0.7742, 0.8006, 0.7581, 0.7969, 0.78, 0.7102]

Model loss [9.902315545425415, 1.9472029461669922, 1.5641283139038087, 1.360539284477234, 1.1997479037094116, 1.091470164375305, 1.0127840768432617, 0.9387887724685668, 0.8983167612457276, 0.8498961108016968, 0.8204826690292358, 0.7961907478523255, 0.7604708577919006, 0.7467431603622436, 0.729432898273468, 0.7117825255203247, 0.7005535391807556, 0.6862441284179688, 0.6780289936256408, 0.6776562923431396, 0.6557191496276855, 0.653943733329773, 0.6433598453617096, 0.6460402368164062, 0.6425360402107239, 0.6224088653945923, 0.6185297646522522, 0.6090269662475586, 0.6159411062812805, 0.5980126874923706, 0.6065679912376404, 0.6044393708705902, 0.593070907421112, 0.5917958635520935, 0.5874527886199952, 0.589685604763031, 0.5856179832839966, 0.5840169403076172, 0.6046884355163574, 0.5884884981632232, 0.5819162059402466, 0.5883457162094117, 0.5808371405792236, 0.6079968465232849, 0.5913409417915344, 0.6112855860137939, 0.6033175735282897, 0.5977994062042237, 0.6011711626052857, 0.5996055920410156]

Validation loss [2.1621547262191774, 1.6710953830718993, 1.3732395824432373, 1.2163452793121339, 1.1745391725540162, 1.0937182384490967, 0.9414590877532959, 0.9938177562713623, 0.8526025506973267, 0.8570435622215271, 0.9481439534187317, 0.8789075517654419, 0.7596549158096313, 0.7567665351867676, 0.7410567723274231, 0.7473764434814453, 0.8485331186294556, 0.7347822197914123, 0.8014271021842957, 0.800986598777771, 0.6966424724578858, 0.7266577686309814, 0.757780947971344, 0.7495384673118591, 0.7427589045524597, 0.7812154838562012, 0.7851827449798584, 0.7230926601409912, 0.7844301044464111, 0.6748634120941163, 0.8371967086791993, 0.7083594964027404, 0.6992114750862122, 0.6989063968658448, 0.8169398376464844, 0.7447513394355774, 0.7124052837371826, 0.86805669631958, 0.673154714345932, 0.6706736933708191, 1.5858357257843017, 0.678705016708374, 0.9680607356071472, 0.8498983500480651, 0.7544509382247925, 0.7503015651702881, 0.7982883481025695, 0.6876910799980164, 0.7140850387573242, 0.9321453906059265]

